%YAML 1.1
%TAG !u! tag:unity3d.com,2011:
--- !u!114 &11400000
MonoBehaviour:
  m_ObjectHideFlags: 0
  m_CorrespondingSourceObject: {fileID: 0}
  m_PrefabInstance: {fileID: 0}
  m_PrefabAsset: {fileID: 0}
  m_GameObject: {fileID: 0}
  m_Enabled: 1
  m_EditorHideFlags: 0
  m_Script: {fileID: 11500000, guid: 9e4abb309ea305248a0686bdff14ce59, type: 3}
  m_Name: Knight
  m_EditorClassIdentifier: 
  health: 2
  armor: 3
  damage: 2
  moveSpeed: 3
  rotateSpeed: 3
  velocity: 3
